[
   {
        "titre":"Das Model",
        "date":"1982",
        "clip":"https://www.youtube.com/embed/OQIYEPe6DWY?controls=0&autoplay=1",
        "artiste":{
            "nom":"Krafwerk",
            "url_photo":"kraftwerk.jpg"
        },
        "album":"Die Mensh-Maschine",
        "styles":[
            "electro"
        ],
        "url_photo":"die_mensche_maschine.jpg"
    },
    {
        "titre":"Feeling Good",
        "date":"1965",
        "clip":"https://www.youtube.com/embed/BNMKGYiJpvg?controls=0&autoplay=1",
        "artiste":{
            "nom":"Nina Simone",
            "url_photo":"nina_simone.jpg"
        },
        "album":"I Put a Spell on You",
        "styles":[
            "jazz",
            "blues", 
            "soul"
        ],
        "url_photo":"i_put_a_spell_on_you.jpg"
    },
    {
        "titre":"Fuck Tha Police",
        "date":"1988",
        "clip":"https://www.youtube.com/embed/51t1OsPSdBc?controls=0&autoplay=1",
        "artiste":{
            "nom":"N.W.A",
            "url_photo":"nwa.jpg"
        },
        "album":"Dope",
        "styles":[
            "rap"
        ],
        "url_photo":"dope.jpg"
    }
]
